…
    ## Note: bootnet will store only the following statistics:  betweenness, closeness, expectedInfluence, BridgeStrength, bridgeExpectedInfluence, strength, edge

    ## Bootstrapping...

    ## Computing statistics...

``` r
All_boot_case$bootTable
```

    ## # A tibble: 336,000 × 12
    ##    name  type  node1 node2  value id    nNode nPerson rank_avg rank_min rank_max
    ##    <chr> <chr> <chr> <chr>  <dbl> <chr> <int>   <int>    <dbl>    <int>    <int>
    ##  1 boot… edge  R1    R2    0.271  R1--…    21     747      205      205      205
    ##  2 boot… edge  R1    R3    0.0594 R1--…    21     747      155      155      155
    ##  3 boot… edge  R2    R3    0.186  R2--…    21     747      192      192      192
    ##  4 boot… edge  R1    R4    0.130  R1--…    21     747      180      180      180
    ##  5 boot… edge  R2    R4    0.0557 R2--…    21     747      154      154      154
    ##  6 boot… edge  R3    R4    0.183  R3--…    21     747      191      191      191
    ##  7 boot… edge  R1    R5    0.202  R1--…    21     747      200      200      200
    ##  8 boot… edge  R2    R5    0.144  R2--…    21     747      184      184      184
    ##  9 boot… edge  R3    R5    0.0464 R3--…    21     747      147      147      147
    ## 10 boot… edge  R4    R5    0.0429 R4--…    21     747      143      143      143
    ## # ℹ 335,990 more rows
    ## # ℹ 1 more variable: graph <chr>
…
